[
{
    "model": "auth.group",
    "pk": 1,
    "fields": {
        "name": "Administrador",
        "permissions": []
    }
},
{
    "model": "auth.group",
    "pk": 2,
    "fields": {
        "name": "Cliente",
        "permissions": []
    }
},
{
    "model": "auth.group",
    "pk": 3,
    "fields": {
        "name": "Cobrador",
        "permissions": []
    }
},
{
    "model": "auth.user",
    "pk": 1,
    "fields": {
        "password": "pbkdf2_sha256$24000$urdCOZhDJTmo$NqNaeunRrF2mSSJ5QOoZlmFLzuITlOPpfUn4okom5mI=",
        "last_login": "2016-04-18T01:43:20.818Z",
        "is_superuser": true,
        "username": "admin",
        "first_name": "Anderson",
        "last_name": "Guererro",
        "email": "anderson.andres.guerrero@gmail.com",
        "is_staff": true,
        "is_active": true,
        "date_joined": "2016-04-18T01:39:22Z",
        "groups": [],
        "user_permissions": []
    }
},
{
    "model": "admin.logentry",
    "pk": 1,
    "fields": {
        "action_time": "2016-04-18T01:40:44.680Z",
        "user": 1,
        "content_type": 4,
        "object_id": "1",
        "object_repr": "admin",
        "action_flag": 2,
        "change_message": "Changed first_name, last_name and email."
    }
},
{
    "model": "admin.logentry",
    "pk": 2,
    "fields": {
        "action_time": "2016-04-18T01:41:14.422Z",
        "user": 1,
        "content_type": 3,
        "object_id": "1",
        "object_repr": "Administrador",
        "action_flag": 1,
        "change_message": "Added."
    }
},
{
    "model": "admin.logentry",
    "pk": 3,
    "fields": {
        "action_time": "2016-04-18T01:41:29.172Z",
        "user": 1,
        "content_type": 3,
        "object_id": "2",
        "object_repr": "Cliente",
        "action_flag": 1,
        "change_message": "Added."
    }
},
{
    "model": "admin.logentry",
    "pk": 4,
    "fields": {
        "action_time": "2016-04-18T01:41:52.753Z",
        "user": 1,
        "content_type": 3,
        "object_id": "3",
        "object_repr": "Cobrador",
        "action_flag": 1,
        "change_message": "Added."
    }
},
{
    "model": "admin.logentry",
    "pk": 5,
    "fields": {
        "action_time": "2016-04-18T01:42:39.099Z",
        "user": 1,
        "content_type": 4,
        "object_id": "1",
        "object_repr": "admin",
        "action_flag": 2,
        "change_message": "Changed password."
    }
}
]
